<?xml version="1.0" encoding="UTF-8" standalone="no"?>
<svg
   xmlns:dc="http://purl.org/dc/elements/1.1/"
   xmlns:cc="http://creativecommons.org/ns#"
   xmlns:rdf="http://www.w3.org/1999/02/22-rdf-syntax-ns#"
   xmlns:svg="http://www.w3.org/2000/svg"
   xmlns="http://www.w3.org/2000/svg"
   xmlns:sodipodi="http://sodipodi.sourceforge.net/DTD/sodipodi-0.dtd"
   xmlns:inkscape="http://www.inkscape.org/namespaces/inkscape"
   version="1.1"
   x="0px"
   y="0px"
   viewBox="0 0 62.291508 85.999374"
   xml:space="preserve"
   sodipodi:docname="pin.svg"
   width="25"
   height="34.5"
   id="svg6"
   inkscape:version="0.92.2 (5c3e80d, 2017-08-06)"><metadata
     id="metadata12"><rdf:RDF><cc:Work
         rdf:about=""><dc:format>image/svg+xml</dc:format><dc:type
           rdf:resource="http://purl.org/dc/dcmitype/StillImage" /></cc:Work></rdf:RDF></metadata><defs
     id="defs10" /><sodipodi:namedview
     pagecolor="#ffffff"
     bordercolor="#666666"
     borderopacity="1"
     objecttolerance="10"
     gridtolerance="10"
     guidetolerance="10"
     inkscape:pageopacity="0"
     inkscape:pageshadow="2"
     inkscape:window-width="1920"
     inkscape:window-height="1017"
     id="namedview8"
     showgrid="false"
     inkscape:zoom="11.39387"
     inkscape:cx="3.9221298"
     inkscape:cy="12.850876"
     inkscape:window-x="-8"
     inkscape:window-y="-8"
     inkscape:window-maximized="1"
     inkscape:current-layer="svg6" /><circle
     style="opacity:1;vector-effect:none;fill:#000000;fill-opacity:1;stroke:none;stroke-width:9.21409225;stroke-linecap:round;stroke-linejoin:round;stroke-miterlimit:4;stroke-dasharray:none;stroke-dashoffset:10.01574802;stroke-opacity:1;paint-order:normal"
     id="path822"
     cx="31.325315"
     cy="32.431969"
     r="16.398186" /><g
     id="g4"
     style="fill:#ffffff"><path
       style="fill:#ffffff"
       d="M 31.096359,1.1862915 C 14.25245,1.1862915 0.5489939,14.889747 0.5489939,31.73349 0.5489939,52.637101 27.885893,83.324826 29.049785,84.621005 30.143005,85.838602 32.051689,85.836461 33.142932,84.621005 34.306825,83.324826 61.643723,52.637101 61.643723,31.73349 61.643398,14.889747 47.940103,1.1862915 31.096359,1.1862915 Z M 31.096359,47.10264 C 22.62177,47.10264 15.727374,40.208079 15.727374,31.73349 15.727374,23.258902 22.621935,16.364506 31.096359,16.364506 39.570785,16.364506 46.465183,23.259067 46.465183,31.733655 46.465183,40.208243 39.570785,47.10264 31.096359,47.10264 Z"
       id="path2" /></g></svg>